<svg width="19" height="20" viewBox="0 0 19 20" fill="none" xmlns="http://www.w3.org/2000/svg">
<path d="M2.00293 20H16.0029C17.1059 20 18.0029 19.103 18.0029 18V9C18.0031 8.86866 17.9772 8.7386 17.927 8.61727C17.8767 8.49594 17.8029 8.38574 17.7099 8.293L9.70993 0.292999C9.61714 0.200053 9.50694 0.126315 9.38562 0.0760046C9.26431 0.0256939 9.13426 -0.000202179 9.00293 -0.000202179C8.8716 -0.000202179 8.74155 0.0256939 8.62024 0.0760046C8.49892 0.126315 8.38872 0.200053 8.29593 0.292999L0.29593 8.293C0.202932 8.38574 0.129173 8.49594 0.0788913 8.61727C0.0286092 8.7386 0.00279455 8.86866 0.00293022 9V18C0.00293022 19.103 0.89993 20 2.00293 20ZM7.00293 18V13H11.0029V18H7.00293ZM2.00293 9.414L9.00293 2.414L16.0029 9.414L16.0039 18H13.0029V13C13.0029 11.897 12.1059 11 11.0029 11H7.00293C5.89993 11 5.00293 11.897 5.00293 13V18H2.00293V9.414Z" fill="black"/>
</svg>
