<svg width="20" height="20" viewBox="0 0 20 20" fill="none" xmlns="http://www.w3.org/2000/svg">
<path fill-rule="evenodd" clip-rule="evenodd" d="M12 4.00115V2.00115H8V4.00115H12ZM2 6.00116V17.0012H18V6.00116H2ZM18 4.00115C19.11 4.00115 20 4.89116 20 6.00116V17.0012C20 18.1112 19.11 19.0012 18 19.0012H2C0.89 19.0012 0 18.1112 0 17.0012L0.00999999 6.00116C0.00999999 4.89116 0.89 4.00115 2 4.00115H6V2.00115C6 0.891154 6.89 0.00115395 8 0.00115395H12C13.11 0.00115395 14 0.891154 14 2.00115V4.00115H18Z" fill="black"/>
</svg>
